Simple Adder/lab1/adder.vcd
$date
	Thu Mar 14 03:55:41 2024
$end

$version
	Synopsys VCS version V-2023.12
$end

$timescale
	1s
$end

$comment Csum: 1 78b50cc8d8e80c31 $end


$scope module simple_adder_directtb_driver $end
$var reg 2 ! i_A [1:0] $end
$var reg 2 " i_B [1:0] $end
$var reg 1 # clk $end
$var reg 1 $ reset $end
$var reg 1 % enable_i $end
$var reg 1 & enable_o $end
$var reg 3 ' OUT [2:0] $end

$scope begin unnamed$$_vcs_8 $end
$upscope $end


$scope begin unnamed$$_vcs_5 $end
$upscope $end


$scope begin unnamed$$_vcs_6 $end

$scope fork unnamed$$_vcs_0 $end

$scope begin unnamed$$_vcs_1 $end
$upscope $end


$scope begin unnamed$$_vcs_2 $end
$upscope $end


$scope begin unnamed$$_vcs_3 $end
$upscope $end


$scope begin unnamed$$_vcs_4 $end
$upscope $end

$upscope $end

$upscope $end


$scope begin unnamed$$_vcs_7 $end
$upscope $end


$scope module U0 $end
$var wire 1 ( clk $end
$var wire 1 ) en_i $end
$var wire 1 * rst $end
$var wire 2 + ina [1:0] $end
$var wire 2 , inb [1:0] $end
$var reg 1 - en_o $end
$var reg 3 . out [2:0] $end
$var reg 2 / temp_a [1:0] $end
$var reg 2 0 temp_b [1:0] $end
$var reg 1 1 dummy_cycle $end
$upscope $end

$upscope $end

$enddefinitions $end

#25
$dumpvars
1#
11
1)
0-
1%
0&
1$
1*
b000 '
b01 !
b01 "
b01 +
b01 ,
b000 .
b01 /
b11 0
1(
$end
#30
0#
0(
#35
1#
1(
b10 "
b10 ,
b01 0
1-
1&
b100 .
b100 '
#40
0#
0(
#45
1#
1(
b01 "
b01 ,
b10 0
b010 .
b010 '
#50
0#
0(
#55
1#
1(
b10 !
b10 +
b01 0
b011 .
b011 '
#60
0#
0(
#65
1#
1(
b01 !
b01 +
b00 "
b00 ,
b10 /
b010 .
b010 '
#70
0#
0(
#75
1#
1(
b10 "
b10 ,
b01 /
b00 0
b011 .
b011 '
#80
0#
0(
#85
1#
1(
b10 0
b001 .
b001 '
#90
0#
0(
#95
1#
1(
b11 "
b11 ,
b011 .
b011 '
#100
0#
0(
#105
1#
1(
b10 !
b10 +
b11 0
#110
0#
0(
#115
1#
1(
b10 "
b10 ,
b10 /
b100 .
b100 '
#120
0#
0(
#125
1#
1(
b00 !
b00 +
b01 "
b01 ,
b10 0
b101 .
b101 '
#130
0#
0(
#135
1#
1(
b00 /
b01 0
b100 .
b100 '
#140
0#
0(
#145
1#
1(
b01 !
b01 +
b001 .
b001 '
#150
0#
0(
#155
1#
1(
b11 !
b11 +
b10 "
b10 ,
b01 /
#160
0#
0(
#165
1#
1(
b00 !
b00 +
b00 "
b00 ,
b11 /
b10 0
b010 .
b010 '
#170
0#
0(
#175
1#
1(
b10 !
b10 +
b01 "
b01 ,
b00 /
b00 0
b101 .
b101 '
#180
0#
0(
#185
1#
1(
b11 "
b11 ,
b10 /
b01 0
b000 .
b000 '
#190
0#
0(
#195
1#
1(
b01 !
b01 +
b11 0
b011 .
b011 '
#200
0#
0(
#205
1#
1(
b11 !
b11 +
b01 "
b01 ,
b01 /
b101 .
b101 '
#210
0#
0(
#215
1#
1(
b10 !
b10 +
b10 "
b10 ,
b11 /
b01 0
b100 .
b100 '
#220
0#
0(
#225
1#
1(
b01 !
b01 +
b11 "
b11 ,
b10 /
b10 0
#230
0#
0(
#235
1#
1(
b11 !
b11 +
b10 "
b10 ,
b01 /
b11 0
#240
0#
0(
#245
1#
1(
b10 !
b10 +
b00 "
b00 ,
b11 /
b10 0
#250
0#
0(
#255
1#
1(
b10 "
b10 ,
b10 /
b00 0
b101 .
b101 '
#260
0#
0(
#265
1#
1(
b01 !
b01 +
b00 "
b00 ,
b10 0
b010 .
b010 '
#270
0#
0(
#275
1#
1(
b00 !
b00 +
b01 "
b01 ,
b01 /
b00 0
b100 .
b100 '
#280
0#
0(
#285
1#
1(
b11 !
b11 +
b10 "
b10 ,
b00 /
b01 0
b001 .
b001 '
#290
0#
0(
#295
1#
1(
b10 !
b10 +
b11 /
b10 0
#300
0#
0(
#305
1#
1(
b00 !
b00 +
b10 /
b101 .
b101 '
#310
0#
0(
#315
1#
1(
b11 !
b11 +
b01 "
b01 ,
b00 /
b100 .
b100 '
#320
0#
0(
#325
1#
1(
b01 !
b01 +
b11 "
b11 ,
b11 /
b01 0
b010 .
b010 '
#330
0#
0(
#335
1#
1(
b11 !
b11 +
b10 "
b10 ,
b01 /
b11 0
b100 .
b100 '
#340
0#
0(
#345
1#
1(
b10 !
b10 +
b01 "
b01 ,
b11 /
b10 0
#350
0#
0(
#355
1#
1(
b01 !
b01 +
b10 /
b01 0
b101 .
b101 '
#360
0#
0(
#365
1#
1(
b10 !
b10 +
b00 "
b00 ,
b01 /
b011 .
b011 '
#370
0#
0(
#375
1#
1(
b11 !
b11 +
b11 "
b11 ,
b10 /
b00 0
b010 .
b010 '
#380
0#
0(
#385
1#
1(
b00 !
b00 +
b11 /
b11 0
#390
0#
0(
#395
1#
1(
b11 !
b11 +
b00 "
b00 ,
b00 /
b110 .
b110 '
#400
0#
0(
#405
1#
1(
b01 "
b01 ,
b11 /
b00 0
b011 .
b011 '
#410
0#
0(
#415
1#
1(
b01 !
b01 +
b00 "
b00 ,
b01 0
#420
0#
0(
#425
1#
1(
b11 !
b11 +
b01 "
b01 ,
b01 /
b00 0
b100 .
b100 '
#430
0#
0(
#435
1#
1(
b10 !
b10 +
b00 "
b00 ,
b11 /
b01 0
b001 .
b001 '
#440
0#
0(
#445
1#
1(
b10 /
b00 0
b100 .
b100 '
#450
0#
0(
#455
1#
1(
b11 !
b11 +
b01 "
b01 ,
b010 .
b010 '
#460
0#
0(
#465
1#
1(
b10 !
b10 +
b10 "
b10 ,
b11 /
b01 0
#470
0#
0(
#475
1#
1(
b01 !
b01 +
b01 "
b01 ,
b10 /
b10 0
b100 .
b100 '
#480
0#
0(
#485
1#
1(
b11 !
b11 +
b11 "
b11 ,
b01 /
b01 0
#490
0#
0(
#495
1#
1(
b01 !
b01 +
b00 "
b00 ,
b11 /
b11 0
b010 .
b010 '
#500
0#
0(
#505
1#
1(
b11 !
b11 +
b01 "
b01 ,
b01 /
b00 0
b110 .
b110 '
#510
0#
0(
#515
1#
1(
b10 "
b10 ,
b11 /
b01 0
b001 .
b001 '
#520
0#
0(
#525
1#
1(
b00 !
b00 +
b10 0
b100 .
b100 '
#530
0#
0(
#535
1#
1(
b10 !
b10 +
b00 "
b00 ,
b00 /
b101 .
b101 '
#540
0#
0(
#545
1#
1(
b10 "
b10 ,
b10 /
b00 0
b010 .
b010 '
#550
0#
0(
#555
1#
1(
b11 !
b11 +
b11 "
b11 ,
b10 0
#560
0#
0(
#565
1#
1(
b11 /
b11 0
b100 .
b100 '
#570
0#
0(
#575
1#
1(
b00 "
b00 ,
b110 .
b110 '
#580
0#
0(
#585
1#
1(
b11 "
b11 ,
b00 0
#590
0#
0(
#595
1#
1(
b10 !
b10 +
b10 "
b10 ,
b11 0
b011 .
b011 '
#600
0#
0(
#605
1#
1(
b01 !
b01 +
b01 "
b01 ,
b10 /
b10 0
b110 .
b110 '
#610
0#
0(
#615
1#
1(
b10 !
b10 +
b01 /
b01 0
b100 .
b100 '
#620
0#
0(
#625
1#
1(
b01 !
b01 +
b11 "
b11 ,
b10 /
b010 .
b010 '
#630
0#
0(
#635
1#
1(
b00 "
b00 ,
b01 /
b11 0
b011 .
b011 '
#640
0#
0(
#645
1#
1(
b00 !
b00 +
b10 "
b10 ,
b00 0
b100 .
b100 '
#650
0#
0(
#655
1#
1(
b11 !
b11 +
b00 /
b10 0
b001 .
b001 '
#660
0#
0(
#665
1#
1(
b00 !
b00 +
b11 /
b010 .
b010 '
#670
0#
0(
#675
1#
1(
b01 !
b01 +
b11 "
b11 ,
b00 /
b101 .
b101 '
#680
0#
0(
#685
1#
1(
b10 !
b10 +
b10 "
b10 ,
b01 /
b11 0
b010 .
b010 '
#690
0#
0(
#695
1#
1(
b11 !
b11 +
b10 /
b10 0
b100 .
b100 '
#700
0#
0(
#705
1#
1(
b10 !
b10 +
b00 "
b00 ,
b11 /
#710
0#
0(
#715
1#
1(
b01 !
b01 +
b10 /
b00 0
b101 .
b101 '
#720
0#
0(
#725
1#
1(
b00 !
b00 +
b11 "
b11 ,
b01 /
b010 .
b010 '
#730
0#
0(
#735
1#
1(
b01 "
b01 ,
b00 /
b11 0
b001 .
b001 '
#740
0#
0(
#745
1#
1(
b11 !
b11 +
b01 0
b011 .
b011 '
#750
0#
0(
#755
1#
1(
b01 !
b01 +
b11 /
b001 .
b001 '
#760
0#
0(
#765
1#
1(
b10 !
b10 +
b10 "
b10 ,
b01 /
b100 .
b100 '
#770
0#
0(
#775
1#
1(
b01 "
b01 ,
b10 /
b10 0
b010 .
b010 '
#780
0#
0(
#785
1#
1(
b00 "
b00 ,
b01 0
b100 .
b100 '
#790
0#
0(
#795
1#
1(
b11 !
b11 +
b01 "
b01 ,
b00 0
b011 .
b011 '
#800
0#
0(
#805
1#
1(
b11 /
b01 0
b010 .
b010 '
#810
0#
0(
#815
1#
1(
b100 .
b100 '
